%YAML 1.1
%TAG !u! tag:unity3d.com,2011:
--- !u!114 &11400000
MonoBehaviour:
  m_ObjectHideFlags: 0
  m_CorrespondingSourceObject: {fileID: 0}
  m_PrefabInstance: {fileID: 0}
  m_PrefabAsset: {fileID: 0}
  m_GameObject: {fileID: 0}
  m_Enabled: 1
  m_EditorHideFlags: 0
  m_Script: {fileID: 11500000, guid: 8681749c06a2497fb862f3ec0646da93, type: 3}
  m_Name: BlockSimple
  m_EditorClassIdentifier: 
  AddressablePath: Blocks/BlockSimple.prefab
  Weight: 5
  BoosterConfigs:
  - {fileID: 11400000, guid: 9855130c7df72f74694d46599c525207, type: 2}
  - {fileID: 11400000, guid: 9d7decfd62e8dad4ebfbae611f3af260, type: 2}
  - {fileID: 11400000, guid: 798ae3df876b7cd4e9556deb6101f8b3, type: 2}
