%YAML 1.1
%TAG !u! tag:unity3d.com,2011:
--- !u!114 &11400000
MonoBehaviour:
  m_ObjectHideFlags: 0
  m_CorrespondingSourceObject: {fileID: 0}
  m_PrefabInstance: {fileID: 0}
  m_PrefabAsset: {fileID: 0}
  m_GameObject: {fileID: 0}
  m_Enabled: 1
  m_EditorHideFlags: 0
  m_Script: {fileID: 11500000, guid: bddae4cc15f54da3a5a8a194be96701b, type: 3}
  m_Name: BoosterSpeedConfig
  m_EditorClassIdentifier: 
  AddressablePath: Boosters/BoosterSpeed.prefab
  BoosterSpawnWeight: 5
  SpeedBoost: 1
